AS 20;base;20;nil;000100000;
ARAF 25;base;25;nil;000100000;
A1K 30;base;30;nil;100000001;
A1K 35;base;35;nil;100000001;
A1K 40;base;40;nil;100000001;
A1K 45;base;45;nil;100000001;
A1K 50;base;50;nil;100000001;
A1K 55;base;55;nil;100000001;
A1K 60;base;60;nil;100000001;
A2K 60;base;60;nil;100000001;
A2K 65;base;65;nil;100000001;
A2K 70;base;70;nil;100000001;
A2K 75;base;75;nil;100000001;
A2K 80;base;80;nil;100000001;
A2K 85;base;85;nil;100000001;
A2K 90;base;90;nil;100000001;
A2K 95;base;95;nil;100000001;
A2K 100;base;100;nil;100000001;
ANKF 60;oven;60;nil;000000000;
ANKF 90;base;90;nil;000000000;
BMK 60;washingMachine;60;nil;100000001;
KPM 6 72;base;6;nil;100000001;
KPM 6 72RZT;base;6;nil;100000001;
A2K 90 90;base;90;90;010000000;
A1K 90 90;base;90;90;010000000;
AKF 100;base;100;100;010000000;
E1K 45;base;45;nil;100010001;
E1K 50;base;50;nil;100010001;
E1K 60;base;60;nil;100010001;
E2K 60;base;60;nil;100010001;
E2K 70;base;70;nil;100010001;
E2K 80;base;80;nil;100010001;
E2K 90;base;90;nil;100010001;
E2C 80;base;80;nil;001010000;
E2C 90;base;90;nil;001010000;
BMK 60;washingMachine;60;nil;100000001;
TLSK 1C1K 40;base;40;nil;101000001;
TLSK 1C1K 45;base;45;nil;101000001;
TLSK 1C1K 50;base;50;nil;101000001;
TLSK 1C1K 55;base;55;nil;101000001;
TLSK 1C1K 60;base;60;nil;101000001;
TLSK 2C 40;base;40;nil;001000000;
TLSK 2C 45;base;45;nil;001000000;
TLSK 2C 50;base;60;nil;001000000;
TLSK 2C 60;base;60;nil;001000000;
TLSK 2C 70;base;70;nil;001000000;
TLSK 2C 80;base;80;nil;001000000;
TLSK 2C 90;base;90;nil;001000000;
TLSK 3C 40;base;40;nil;001000000;
TLSK 3C 45;base;45;nil;001000000;
TLSK 3C 50;base;50;nil;001000000;
TLSK 3C 60;base;60;nil;001000000;
TLSK 3C 70;base;70;nil;001000000;
TLSK 3C 80;base;80;nil;001000000;
TLSK 3C 90;base;90;nil;001000000;
TLSK 3C 240;base;40;nil;001000000;
TLSK 3C 245;base;45;nil;001000000;
TLSK 3C 250;base;50;nil;001000000;
TLSK 3C 260;base;60;nil;001000000;
TLSK 3C 270;base;70;nil;001000000;
TLSK 3C 280;base;80;nil;001000000;
TLSK 3C 290;base;90;nil;001000000;
TLSK 4C 40;base;40;nil;001000000;
TLSK 4C 45;base;45;nil;001000000;
TLSK 4C 50;base;50;nil;001000000;
TLSK 4C 60;base;60;nil;001000000;
TLSK 4C 70;base;70;nil;001000000;
TLSK 4C 80;base;80;nil;001000000;
TLSK 4C 90;base;90;nil;001000000;
US 20 {AD_UDH2};wall;20;nil;000100000;
UARAF 30 {AD_UDH2};wall;30;nil;000100000;
U1K 30 {AD_UDH2};wall;30;nil;100000001;
U1K 35 {AD_UDH2};wall;35;nil;100000001;
U1K 40 {AD_UDH2};wall;40;nil;100000001;
U1K 45 {AD_UDH2};wall;45;nil;100000001;
U1K 50 {AD_UDH2};wall;50;nil;100000001;
U1K 55 {AD_UDH2};wall;55;nil;100000001;
U1K 60 {AD_UDH2};wall;60;nil;100000001;
U2K 60 {AD_UDH2};wall;60;nil;100000001;
U2K 65 {AD_UDH2};wall;65;nil;100000001;
U2K 70 {AD_UDH2};wall;70;nil;100000001;
U2K 75 {AD_UDH2};wall;75;nil;100000001;
U2K 80 {AD_UDH2};wall;80;nil;100000001;
U2K 85 {AD_UDH2};wall;85;nil;100000001;
U2K 90 {AD_UDH2};wall;90;nil;100000001;
U2K 95 {AD_UDH2};wall;95;nil;100000001;
U2K 100 {AD_UDH2};wall;100;nil;100000001;
U1CK 30 {AD_UDH2};wall;30;nil;100000101;
U1CK 35 {AD_UDH2};wall;35;nil;100000101;
U1CK 40 {AD_UDH2};wall;40;nil;100000101;
U1CK 45 {AD_UDH2};wall;45;nil;100000101;
U1CK 50 {AD_UDH2};wall;50;nil;100000101;
U1CK 55 {AD_UDH2};wall;55;nil;100000101;
U1CK 60 {AD_UDH2};wall;60;nil;100000101;
U2CK 60 {AD_UDH2};wall;60;nil;100000101;
U2CK 65 {AD_UDH2};wall;65;nil;100000101;
U2CK 70 {AD_UDH2};wall;70;nil;100000101;
U2CK 75 {AD_UDH2};wall;75;nil;100000101;
U2CK 80 {AD_UDH2};wall;80;nil;100000101;
U2CK 85 {AD_UDH2};wall;85;nil;100000101;
U2CK 90 {AD_UDH2};wall;90;nil;100000101;
U2CK 95 {AD_UDH2};wall;95;nil;100000101;
U2CK 100 {AD_UDH2};wall;100;nil;100000101;
U2K 60 60 {AD_UDH2};wall;60;60;010000000;
U2K 65 65 {AD_UDH2};wall;65;65;010000000;
U1K 60 60 {AD_UDH2};wall;60;60;010000000;
U1K 65 65 {AD_UDH2};wall;65;65;010000000;
PSK 45 {AD_UDH2};wall;45;nil;100000010;
PSK 50 {AD_UDH2};wall;50;nil;100000010;
PSK 60 {AD_UDH2};wall;60;nil;100000010;
PSK 70 {AD_UDH2};wall;70;nil;100000010;
PSK 80 {AD_UDH2};wall;80;nil;100000010;
PSK 90 {AD_UDH2};wall;90;nil;100000010;
PSKC 40 {AD_UDH2};wall;40;nil;100001010;
PSKC 45 {AD_UDH2};wall;45;nil;100001010;
PSKC 50 {AD_UDH2};wall;50;nil;100001010;
PSKC 60 {AD_UDH2};wall;60;nil;100001010;
PSKC 70 {AD_UDH2};wall;70;nil;100001010;
PSKC 80 {AD_UDH2};wall;80;nil;100001010;
PSKC 90 {AD_UDH2};wall;90;nil;100001010;
HF 45 {AD_UDH2};wall;45;nil;100000010;
HF 50 {AD_UDH2};wall;50;nil;100000010;
HF 60 {AD_UDH2};wall;60;nil;100000010;
HF 70 {AD_UDH2};wall;70;nil;100000010;
HF 80 {AD_UDH2};wall;80;nil;100000010;
HF 90 {AD_UDH2};wall;90;nil;100000010;
HFC 40 {AD_UDH2};wall;40;nil;100001010;
HFC 45 {AD_UDH2};wall;45;nil;100001010;
HFC 50 {AD_UDH2};wall;50;nil;100001010;
HFC 60 {AD_UDH2};wall;60;nil;100001010;
HFC 70 {AD_UDH2};wall;70;nil;100001010;
HFC 80 {AD_UDH2};wall;80;nil;100001010;
HFC 90 {AD_UDH2};wall;90;nil;100001010;
HK 45 {AD_UDH2};wall;45;nil;100000010;
HK 50 {AD_UDH2};wall;50;nil;100000010;
HK 60 {AD_UDH2};wall;60;nil;100000010;
HK 70 {AD_UDH2};wall;70;nil;100000010;
HK 80 {AD_UDH2};wall;80;nil;100000010;
HK 90 {AD_UDH2};wall;90;nil;100000010;
HKC 40 {AD_UDH2};wall;40;nil;100000110;
HKC 45 {AD_UDH2};wall;45;nil;100000110;
HKC 50 {AD_UDH2};wall;50;nil;100000110;
HKC 60 {AD_UDH2};wall;60;nil;100000110;
HKC 70 {AD_UDH2};wall;70;nil;100000110;
HKC 80 {AD_UDH2};wall;80;nil;100000110;
HKC 90 {AD_UDH2};wall;90;nil;100000110;
HS 45 {AD_UDH2};wall;45;nil;100000010;
HS 50 {AD_UDH2};wall;50;nil;100000010;
HS 60 {AD_UDH2};wall;60;nil;100000010;
HS 70 {AD_UDH2};wall;70;nil;100000010;
HS 80 {AD_UDH2};wall;80;nil;100000010;
HS 90 {AD_UDH2};wall;90;nil;100000010;
HSC 40 {AD_UDH2};wall;40;nil;100000110;
HSC 45 {AD_UDH2};wall;45;nil;100000110;
HSC 50 {AD_UDH2};wall;50;nil;100000110;
HSC 60 {AD_UDH2};wall;60;nil;100000110;
HSC 70 {AD_UDH2};wall;70;nil;100000110;
HSC 80 {AD_UDH2};wall;80;nil;100000110;
HSC 90 {AD_UDH2};wall;90;nil;100000110;
HKS 45 {AD_UDH2};wall;45;nil;100000010;
HKS 50 {AD_UDH2};wall;50;nil;100000010;
HKS 60 {AD_UDH2};wall;60;nil;100000010;
HKS 70 {AD_UDH2};wall;70;nil;100000010;
HKS 80 {AD_UDH2};wall;80;nil;100000010;
HKS 90 {AD_UDH2};wall;90;nil;100000010;
HKSC 40 {AD_UDH2};wall;40;nil;100001010;
HKSC 45 {AD_UDH2};wall;45;nil;100001010;
HKSC 50 {AD_UDH2};wall;50;nil;100001010;
HKSC 60 {AD_UDH2};wall;60;nil;100001010;
HKSC 70 {AD_UDH2};wall;70;nil;100001010;
HKSC 80 {AD_UDH2};wall;80;nil;100001010;
HKSC 90 {AD_UDH2};wall;90;nil;100001010;
DUOL 45 {AD_UDH2};wall;45;nil;100000010;
DUOL 50 {AD_UDH2};wall;50;nil;100000010;
DUOL 60 {AD_UDH2};wall;60;nil;100000010;
DUOL 70 {AD_UDH2};wall;70;nil;100000010;
DUOL 80 {AD_UDH2};wall;80;nil;100000010;
DUOL 90 {AD_UDH2};wall;90;nil;100000010;
DUOLC 45 {AD_UDH2};wall;40;nil;100001010;
DUOLC 40 {AD_UDH2};wall;45;nil;100001010;
DUOLC 50 {AD_UDH2};wall;50;nil;100001010;
DUOLC 60 {AD_UDH2};wall;60;nil;100001010;
DUOLC 70 {AD_UDH2};wall;70;nil;100001010;
DUOLC 80 {AD_UDH2};wall;80;nil;100001010;
DUOLC 90 {AD_UDH2};wall;90;nil;100001010;
MONL 45 {AD_UDH2};wall;45;nil;100000010;
MONL 50 {AD_UDH2};wall;50;nil;100000010;
MONL 60 {AD_UDH2};wall;60;nil;100000010;
MONL 70 {AD_UDH2};wall;70;nil;100000010;
MONL 80 {AD_UDH2};wall;80;nil;100000010;
MONL 90 {AD_UDH2};wall;90;nil;100000010;
MONLC 40 {AD_UDH2};wall;40;nil;100001010;
MONLC 45 {AD_UDH2};wall;45;nil;100001010;
MONLC 50 {AD_UDH2};wall;50;nil;100001010;
MONLC 60 {AD_UDH2};wall;60;nil;100001010;
MONLC 70 {AD_UDH2};wall;70;nil;100001010;
MONLC 80 {AD_UDH2};wall;80;nil;100001010;
MONLC 90 {AD_UDH2};wall;90;nil;100001010;
NEOL 45 {AD_UDH2};wall;45;nil;100000010;
NEOL 50 {AD_UDH2};wall;50;nil;100000010;
NEOL 60 {AD_UDH2};wall;60;nil;100000010;
NEOL 70 {AD_UDH2};wall;70;nil;100000010;
NEOL 80 {AD_UDH2};wall;80;nil;100000010;
NEOL 90 {AD_UDH2};wall;90;nil;100000010;
NEOLC 40 {AD_UDH2};wall;40;nil;100001010;
NEOLC 45 {AD_UDH2};wall;45;nil;100001010;
NEOLC 50 {AD_UDH2};wall;50;nil;100001010;
NEOLC 60 {AD_UDH2};wall;60;nil;100001010;
NEOLC 70 {AD_UDH2};wall;70;nil;100001010;
NEOLC 80 {AD_UDH2};wall;80;nil;100001010;
NEOLC 90 {AD_UDH2};wall;90;nil;100001010;
SENSO 45 {AD_UDH2};wall;45;nil;100000010;
SENSO 50 {AD_UDH2};wall;50;nil;100000010;
SENSO 60 {AD_UDH2};wall;60;nil;100000010;
SENSO 70 {AD_UDH2};wall;70;nil;100000010;
SENSO 80 {AD_UDH2};wall;80;nil;100000010;
SENSO 90 {AD_UDH2};wall;90;nil;100000010;
SENSOC 40 {AD_UDH2};wall;40;nil;100001010;
SENSOC 45 {AD_UDH2};wall;45;nil;100001010;
SENSOC 50 {AD_UDH2};wall;50;nil;100001010;
SENSOC 60 {AD_UDH2};wall;60;nil;100001010;
SENSOC 70 {AD_UDH2};wall;70;nil;100001010;
SENSOC 80 {AD_UDH2};wall;80;nil;100001010;
SENSOC 90 {AD_UDH2};wall;90;nil;100001010;
FREE 45 {AD_UDH2};wall;45;nil;100000010;
FREE 50 {AD_UDH2};wall;50;nil;100000010;
FREE 60 {AD_UDH2};wall;60;nil;100000010;
FREE 70 {AD_UDH2};wall;70;nil;100000010;
FREE 80 {AD_UDH2};wall;80;nil;100000010;
FREE 90 {AD_UDH2};wall;90;nil;100000010;
FREEC 40 {AD_UDH2};wall;40;nil;100001010;
FREEC 45 {AD_UDH2};wall;45;nil;100001010;
FREEC 50 {AD_UDH2};wall;50;nil;100001010;
FREEC 60 {AD_UDH2};wall;60;nil;100001010;
FREEC 70 {AD_UDH2};wall;70;nil;100001010;
FREEC 80 {AD_UDH2};wall;80;nil;100001010;
FREEC 90 {AD_UDH2};wall;90;nil;100001010;
UKP 6 {AD_UDH2};wall;6;nil;100000001;
RZT KPM 6 {AD_UDH2};wall;6;nil;100000001;
BK 30 {AD_BDH2};tall;30;nil;100000001;
BK 35 {AD_BDH2};tall;35;nil;100000001;
BK 40 {AD_BDH2};tall;40;nil;100000001;
BK 45 {AD_BDH2};tall;45;nil;100000001;
BK 50 {AD_BDH2};tall;50;nil;100000001;
BK 55 {AD_BDH2};tall;55;nil;100000001;
BK 60 {AD_BDH2};tall;60;nil;100000001;
BD 30 {AD_BDH2};tall;30;nil;100000001;
BD 35 {AD_BDH2};tall;35;nil;100000001;
BD 40 {AD_BDH2};tall;40;nil;100000001;
BD 45 {AD_BDH2};tall;45;nil;100000001;
BD 50 {AD_BDH2};tall;50;nil;100000001;
BD 55 {AD_BDH2};tall;55;nil;100000001;
BD 60 {AD_BDH2};tall;60;nil;100000001;
BA 30 {AD_BDH2};tall;30;nil;100000001;
BA 30 {AD_BDH2};tall;35;nil;100000001;
BA 40 {AD_BDH2};tall;40;nil;100000001;
BA 40 {AD_BDH2};tall;45;nil;100000001;
BA 50 {AD_BDH2};tall;50;nil;100000001;
BA 50 {AD_BDH2};tall;55;nil;100000001;
BA 60 {AD_BDH2};tall;60;nil;100000001;
BF 60 {AD_BDH2};tall;60;nil;100000001;
BF2C 60 {AD_BDH2};tall;60;nil;101000001;
BF3C 60 {AD_BDH2};tall;60;nil;101000001;
BMFD 60 {AD_BDH2};tall;60;nil;101000001;
BCFD 60 {AD_BDH2};tall;60;nil;101000001;
BZD KBN 75 {(BCH2)};refrigator;75;nil;000000000;
BKPM 6 {AD_BDH2};tall;6;nil;100000001;
RZT  6 {AD_BDH2};tall;6;nil;100000001;
